…
## Simple timeseries
Obtenir des données historiques pour un stock unique (par exemple, Google) :

```r
# get historical data for single stock. e.g. google
library(tidyquant)
tq_get("GOOGL", get="stock.prices")
```

```
## # A tibble: 2,726 x 7
##    date        open  high   low close   volume adjusted
##    <date>     <dbl> <dbl> <dbl> <dbl>    <dbl>    <dbl>
##  1 2009-01-02  154.  161.  153.  161.  7213700     161.
##  2 2009-01-05  161.  166.  158.  164.  9768200     164.
##  3 2009-01-06  167.  171.  163.  167. 12837500     167.
##  4 2009-01-07  164.  166.  160.  161.  8980000     161.
##  5 2009-01-08  159.  163.  159.  163.  7194100     163.
##  6 2009-01-09  164.  164.  157.  158.  8672300     158.
##  7 2009-01-12  158.  160.  155.  157.  6601900     157.
##  8 2009-01-13  156.  160.  155.  157.  8856100     157.
##  9 2009-01-14  155.  157.  149.  151. 10924800     151.
## 10 2009-01-15  149.  152.  144.  150. 11857100     150.
## # … with 2,716 more rows
```

Calculer le retour mensuel de stock unique :

```r
library(dplyr)
# calculate monthly return of single stock
tq_get(c("GOOGL"), get="stock.prices") %>%
  tq_transmute(select=adjusted,
               mutate_fun=periodReturn,
               period="monthly",
               col_rename = "monthly_return")
```

```
## # A tibble: 130 x 2
##    date       monthly_return
##    <date>              <dbl>
##  1 2009-01-30        0.0536 
##  2 2009-02-27       -0.00160
##  3 2009-03-31        0.0298 
##  4 2009-04-30        0.138  
##  5 2009-05-29        0.0537 
##  6 2009-06-30        0.0104 
##  7 2009-07-31        0.0509 
##  8 2009-08-31        0.0420 
##  9 2009-09-30        0.0740 
## 10 2009-10-30        0.0812 
## # … with 120 more rows
```
…
<img src="tidyquant_files/figure-html/unnamed-chunk-5-1.png" width="672" />

## Timeseries multiples
Obtenir des données historiques pour plusieurs actions (par exemple, GAFA) :

```r
# get historical data for multiple stocks. e.g. GAFA
tq_get(c("GOOGL","AMZN","FB","AAPL"), get="stock.prices")
```

```
## # A tibble: 10,053 x 8
##    symbol date        open  high   low close   volume adjusted
##    <chr>  <date>     <dbl> <dbl> <dbl> <dbl>    <dbl>    <dbl>
##  1 GOOGL  2009-01-02  154.  161.  153.  161.  7213700     161.
##  2 GOOGL  2009-01-05  161.  166.  158.  164.  9768200     164.
##  3 GOOGL  2009-01-06  167.  171.  163.  167. 12837500     167.
##  4 GOOGL  2009-01-07  164.  166.  160.  161.  8980000     161.
##  5 GOOGL  2009-01-08  159.  163.  159.  163.  7194100     163.
##  6 GOOGL  2009-01-09  164.  164.  157.  158.  8672300     158.
##  7 GOOGL  2009-01-12  158.  160.  155.  157.  6601900     157.
##  8 GOOGL  2009-01-13  156.  160.  155.  157.  8856100     157.
##  9 GOOGL  2009-01-14  155.  157.  149.  151. 10924800     151.
## 10 GOOGL  2009-01-15  149.  152.  144.  150. 11857100     150.
## # … with 10,043 more rows
```
…
Calculez le *retour mensuel* de plusieurs actions (encore une fois, GAFA):

```r
# calculate monthly return of multiple stocks
tq_get(c("GOOGL","AMZN","FB","AAPL"), get="stock.prices") %>%
  group_by(symbol) %>%
  tq_transmute(select=adjusted,
               mutate_fun=periodReturn,
               period="monthly",
               col_rename = "monthly_return")
```

```
## # A tibble: 480 x 3
## # Groups:   symbol [4]
##    symbol date       monthly_return
##    <chr>  <date>              <dbl>
##  1 GOOGL  2009-01-30        0.0536 
##  2 GOOGL  2009-02-27       -0.00160
##  3 GOOGL  2009-03-31        0.0298 
##  4 GOOGL  2009-04-30        0.138  
##  5 GOOGL  2009-05-29        0.0537 
##  6 GOOGL  2009-06-30        0.0104 
##  7 GOOGL  2009-07-31        0.0509 
##  8 GOOGL  2009-08-31        0.0420 
##  9 GOOGL  2009-09-30        0.0740 
## 10 GOOGL  2009-10-30        0.0812 
## # … with 470 more rows
```
…
