…
## Tibbles

Un **tibble** est une structure moderne du dataframe.

Ceci est particulièrement utile pour les grands ensembles de données car *il n'imprime que les premières lignes*. Cela vous aide à faire face plus tôt aux problèmes, ce qui vous permet de nettoyer le code.

```r
# Converting a df to a tibble
biopsy <- tbl_df(biopsy)
biopsy
```

```
## # A tibble: 699 x 11
##    ID         V1    V2    V3    V4    V5    V6    V7    V8    V9 class    
##    <chr>   <int> <int> <int> <int> <int> <int> <int> <int> <int> <fct>    
##  1 1000025     5     1     1     1     2     1     3     1     1 benign   
##  2 1002945     5     4     4     5     7    10     3     2     1 benign   
##  3 1015425     3     1     1     1     2     2     3     1     1 benign   
##  4 1016277     6     8     8     1     3     4     3     7     1 benign   
##  5 1017023     4     1     1     3     2     1     3     1     1 benign   
##  6 1017122     8    10    10     8     7    10     9     7     1 malignant
##  7 1018099     1     1     1     1     2    10     3     1     1 benign   
##  8 1018561     2     1     2     1     2     1     3     1     1 benign   
##  9 1033078     2     1     1     1     2     1     1     1     5 benign   
## 10 1033078     4     2     1     1     2     1     2     1     1 benign   
## # … with 689 more rows
```
…
## Renommage

Les noms des colonnes dans nos données biopsy sont très vagues et ne nous donnent pas signification. Nous devons modifier les noms de la colonne afin qu'une personne extérieur puisse avoir une idée des valeurs auxquelles il fait référence.


```r
rename(biopsy,
       thickness = V1,cell_size = V2,
       cell_shape = V3, marg_adhesion = V4,
       epithelial_cell_size = V5, bare_nuclei = V6,
       chromatin = V7, norm_nucleoli = V8, mitoses = V9)
```

```
## # A tibble: 699 x 11
##    ID    thickness cell_size cell_shape marg_adhesion epithelial_cell…
##    <chr>     <int>     <int>      <int>         <int>            <int>
##  1 1000…         5         1          1             1                2
##  2 1002…         5         4          4             5                7
##  3 1015…         3         1          1             1                2
##  4 1016…         6         8          8             1                3
##  5 1017…         4         1          1             3                2
##  6 1017…         8        10         10             8                7
##  7 1018…         1         1          1             1                2
##  8 1018…         2         1          2             1                2
##  9 1033…         2         1          1             1                2
## 10 1033…         4         2          1             1                2
## # … with 689 more rows, and 5 more variables: bare_nuclei <dbl>,
## #   chromatin <int>, norm_nucleoli <int>, mitoses <int>, class <fct>
```
…
## Arrange
**Arrange** réordonne les lignes en fonction de leur contenu dans l'ordre croissant par défaut.

Les médecins voudraient voir les données dans l'ordre de la taille de la tumeur.

```r
#arrange in the order of V2:cell size
arrange(biopsy_new,cell_size)
```

```
## # A tibble: 186 x 9
##    ID    thickness cell_size cell_shape marg_adhesion epithelial_cell…
##    <chr>     <int>     <int>      <int>         <int>            <int>
##  1 1050…         6         1          1             1                2
##  2 1204…         6         1          1             1                2
##  3 1223…         6         1          3             1                2
##  4 5435…         6         1          3             1                4
##  5 63375         9         1          2             6                4
##  6 7529…        10         1          1             1                2
##  7 1276…         6         1          1             3                2
##  8 1238…         6         1          1             3                2
##  9 1257…         6         1          1             1                1
## 10 1224…         6         1          1             1                2
## # … with 176 more rows, and 3 more variables: bare_nuclei <dbl>,
## #   norm_nucleoli <int>, class <fct>
```

Cela montre les données en ordre croissant de la taille de la cellule.

Pour organiser les lignes dans l'ordre décroissant de V2, nous ajoutons la fonction `desc ()` à la variable avant de la passer dans arrange.


```r
#arrange in the order of V2:cell size in decreasing order
arrange(biopsy_new,desc(cell_size))
```

```
## # A tibble: 186 x 9
##    ID    thickness cell_size cell_shape marg_adhesion epithelial_cell…
##    <chr>     <int>     <int>      <int>         <int>            <int>
##  1 1017…         8        10         10             8                7
##  2 1080…        10        10         10             8                6
##  3 1100…         6        10         10             2                8
##  4 1103…        10        10         10             4                8
##  5 1112…         8        10         10             1                3
##  6 1116…         9        10         10             1               10
##  7 1123…         6        10          2             8               10
##  8 1168…        10        10         10            10               10
##  9 1170…        10        10         10             8                2
## 10 1173…        10        10         10             3               10
## # … with 176 more rows, and 3 more variables: bare_nuclei <dbl>,
## #   norm_nucleoli <int>, class <fct>
```
…
Nous pouvons résoudre ce problème avec `tidyr::gather()`, qui est utilisé pour convertir les données messy en tidy. La fonction `gather` prend le dataframe que nous voulons nettoyer entrée. Les deux paramètres suivants sont les noms des colonnes key et value columns du jeu de données tidy.

Dans notre exemple, key = 'Tumor_Atrributes' et value = 'Score'. Vous pouvez également préciser les colonnes que vous ne voulez pas ranger, à savoir ID et class:

```r
#Tidy Data
library(tidyr)
tidy_df <- biopsy_new %>% gather(key = "Tumor_Attributes", value = "Score", -ID, -class)

tidy_df
```

```
## # A tibble: 1,302 x 4
##    ID      class     Tumor_Attributes Score
##    <chr>   <fct>     <chr>            <dbl>
##  1 1017122 malignant thickness            8
##  2 1073960 malignant thickness           10
##  3 1080185 malignant thickness           10
##  4 1100524 malignant thickness            6
##  5 1100524 malignant thickness            6
##  6 1103608 malignant thickness           10
##  7 1112209 malignant thickness            8
##  8 1116116 malignant thickness            9
##  9 1116116 malignant thickness            9
## 10 1168736 malignant thickness           10
## # … with 1,292 more rows
```
…
